# Protein segment A
*

stream @common/common_toppar.str

! Load sequences.
!begin
!-------------------------------------------------------

read sequ card
*B
242
MET GLY SER GLN THR 
LEU PRO HSD GLY HSD MET GLN THR LEU ILE PHE LEU ASP 
LEU GLU ALA THR GLY LEU PRO SER SER ARG PRO GLU VAL 
THR GLU LEU CYS LEU LEU ALA VAL HSD ARG ARG ALA LEU 
GLU ASN THR SER ILE SER GLN GLY HSD PRO PRO PRO VAL 
PRO ARG PRO PRO ARG VAL VAL ASP LYS LEU SER LEU CYS 
ILE ALA PRO GLY LYS ALA CYS SER PRO GLY ALA SER GLU 
ILE THR GLY LEU SER LYS ALA GLU LEU GLU VAL GLN GLY 
ARG GLN ARG PHE ASP ASP ASN LEU ALA ILE LEU LEU ARG 
ALA PHE LEU GLN ARG GLN PRO GLN PRO CYS CYS LEU VAL 
ALA HSD ASN GLY ASP ARG TYR ASP PHE PRO LEU LEU GLN 
THR GLU LEU ALA ARG LEU SER THR PRO SER PRO LEU ASP 
GLY THR PHE CYS VAL ASP SER ILE ALA ALA LEU LYS ALA 
LEU GLU GLN ALA SER SER PRO SER GLY ASN GLY SER ARG 
LYS SER TYR SER LEU GLY SER ILE TYR THR ARG LEU TYR 
TRP GLN ALA PRO THR ASP SER HSD THR ALA GLU GLY ASP 
VAL LEU THR LEU LEU SER ILE CYS GLN TRP LYS PRO GLN 
ALA LEU LEU GLN TRP VAL ASP GLU HSD ALA ARG PRO PHE 
SER THR VAL LYS PRO MET TYR GLY THR PRO ALA THR THR 
GLY THR THR

generate B setup


open read unit 22 card name "data/5ywt_protb.pdb"
read coor pdb unit 22 sele segid B end
close unit 22
!--------------------------------------------------------

stream @utils/check_integrity.str

define fix sele initialized .and. .not. HYDROGEN show end

ic para
ic fill preserve
ic build

print coor 

scaler wmain set 0.0 sele all end
scaler wmain set 1.1 sele fix end

!--------------------------------------------------------
stream @utils/check_integrity.str

stream @utils/save.str @TASKNAME
